[
  {
    "link": "https://nat.prismhr.com/nat",
    "title": "Client Login",
    "type": "external"
  },
  {
    "link": "https://nat-ep.prismhr.com/#/auth/login",
    "title": "Employee Login",
    "type": "external"
  },
  {
    "link": "1-888-376-7291",
    "title": "&#9990; Tel: 1-888-376-7291",
    "type": "tel"
  }
]